\relax 
\@writefile{toc}{\contentsline {section}{\numberline {1}Introduction}{1}}
\@writefile{toc}{\contentsline {subsection}{\numberline {1.1}DNA}{1}}
\citation{Virstedt2004,Garcia2007}
\@writefile{toc}{\contentsline {subsection}{\numberline {1.2}DNA Looping}{2}}
\@writefile{toc}{\contentsline {subsection}{\numberline {1.3}The lac Operon}{2}}
\citation{Muller-Hill1996}
\citation{Muller-Hill1996}
\citation{Kraemer1987}
\citation{Muller-Hill1996}
\citation{Olson2012}
\citation{Olson2012}
\citation{Olson2012}
\citation{Olson2012}
\citation{AliAzam1999,Ditto1994}
\@writefile{lof}{\contentsline {figure}{\numberline {1}{\ignorespaces \relax \fontsize  {10}{12}\selectfont  \abovedisplayskip 10\p@ plus2\p@ minus5\p@ \abovedisplayshortskip \z@ plus3\p@ \belowdisplayshortskip 6\p@ plus3\p@ minus3\p@ \def \leftmargin \leftmargini \parsep 4.5\p@ plus2\p@ minus\p@ \topsep 9\p@ plus3\p@ minus5\p@ \itemsep 4.5\p@ plus2\p@ minus\p@ {\leftmargin \leftmargini \topsep 6\p@ plus2\p@ minus2\p@ \parsep 3\p@ plus2\p@ minus\p@ \itemsep \parsep }\belowdisplayskip \abovedisplayskip The lac operon consists of a promoter region (P lac), three operator regions (O1, O2, O3), regulated genes (Z, Y, A) and repressor protein (i) with it's own promoter and gene region. When repressor protein LacR is present in the nucleus of E. coli and binds to the operator region, production of the ZYA genes cease. Image taken from \cite  {Muller-Hill1996} }}{3}}
\newlabel{fig:LacOperonZoomedOut}{{1}{3}}
\@writefile{toc}{\contentsline {subsection}{\numberline {1.4}Architectural Proteins}{3}}
\citation{Swinger2003}
\citation{Swinger2007,Sagi2004}
\@writefile{lof}{\contentsline {figure}{\numberline {2}{\ignorespaces \relax \fontsize  {10}{12}\selectfont  \abovedisplayskip 10\p@ plus2\p@ minus5\p@ \abovedisplayshortskip \z@ plus3\p@ \belowdisplayshortskip 6\p@ plus3\p@ minus3\p@ \def \leftmargin \leftmargini \parsep 4.5\p@ plus2\p@ minus\p@ \topsep 9\p@ plus3\p@ minus5\p@ \itemsep 4.5\p@ plus2\p@ minus\p@ {\leftmargin \leftmargini \topsep 6\p@ plus2\p@ minus2\p@ \parsep 3\p@ plus2\p@ minus\p@ \itemsep \parsep }\belowdisplayskip \abovedisplayskip The Lac operon consists of three operators. Image taken from \cite  {Muller-Hill1996} }}{4}}
\newlabel{fig:LacOperonZoomedIn}{{2}{4}}
\@writefile{lof}{\contentsline {figure}{\numberline {3}{\ignorespaces \relax \fontsize  {10}{12}\selectfont  \abovedisplayskip 10\p@ plus2\p@ minus5\p@ \abovedisplayshortskip \z@ plus3\p@ \belowdisplayshortskip 6\p@ plus3\p@ minus3\p@ \def \leftmargin \leftmargini \parsep 4.5\p@ plus2\p@ minus\p@ \topsep 9\p@ plus3\p@ minus5\p@ \itemsep 4.5\p@ plus2\p@ minus\p@ {\leftmargin \leftmargini \topsep 6\p@ plus2\p@ minus2\p@ \parsep 3\p@ plus2\p@ minus\p@ \itemsep \parsep }\belowdisplayskip \abovedisplayskip The energy-optimized structure of the Lac repressor (purple) bound to two $O_{sym}$ operators between 95bp of free DNA in an A2 orientation. LacR-bound loops are conventionally measured midpoint of first operator to midpoint of second operator, a total of 14 base pairs from LacR, making this a 109bp loop. Image taken from \cite  {Olson2012}.}}{4}}
\newlabel{fig:LacOperonStructure}{{3}{4}}
\citation{Becker2005,Becker2007,Bond2010}
\citation{Hodges-Garcia1989}
\citation{Rouviere-Yaniv1979}
\@writefile{lof}{\contentsline {figure}{\numberline {4}{\ignorespaces \relax \fontsize  {10}{12}\selectfont  \abovedisplayskip 10\p@ plus2\p@ minus5\p@ \abovedisplayshortskip \z@ plus3\p@ \belowdisplayshortskip 6\p@ plus3\p@ minus3\p@ \def \leftmargin \leftmargini \parsep 4.5\p@ plus2\p@ minus\p@ \topsep 9\p@ plus3\p@ minus5\p@ \itemsep 4.5\p@ plus2\p@ minus\p@ {\leftmargin \leftmargini \topsep 6\p@ plus2\p@ minus2\p@ \parsep 3\p@ plus2\p@ minus\p@ \itemsep \parsep }\belowdisplayskip \abovedisplayskip The energy-optimized structure of a P2, 115bp Lac repressor mediated loop bound to two $O_{sym}$ operators between 101bp of free DNA and two bound HU (yellow). HU often binds near the operators for P2 loops of 92 and 115bp length. The LacR protein here has deformed itself to accommodate the stress built up at the apex of the loop. Image taken from \cite  {Olson2012}. }}{5}}
\newlabel{fig:LacOperonStructureWithHU}{{4}{5}}
\@writefile{toc}{\contentsline {subsection}{\numberline {1.5}Differences between the observed in vivo and in vitro flexibility of DNA}{5}}
\citation{Olson1998}
\citation{Dickerson1989}
\citation{Olson1998}
\citation{Dickerson1989}
\@writefile{lof}{\contentsline {figure}{\numberline {5}{\ignorespaces \relax \fontsize  {10}{12}\selectfont  \abovedisplayskip 10\p@ plus2\p@ minus5\p@ \abovedisplayshortskip \z@ plus3\p@ \belowdisplayshortskip 6\p@ plus3\p@ minus3\p@ \def \leftmargin \leftmargini \parsep 4.5\p@ plus2\p@ minus\p@ \topsep 9\p@ plus3\p@ minus5\p@ \itemsep 4.5\p@ plus2\p@ minus\p@ {\leftmargin \leftmargini \topsep 6\p@ plus2\p@ minus2\p@ \parsep 3\p@ plus2\p@ minus\p@ \itemsep \parsep }\belowdisplayskip \abovedisplayskip The architectural protein HU (PDB ID 1P78) exhibiting the strongly bent angle of bound DNA.}}{6}}
\newlabel{fig:HU_structure}{{5}{6}}
\@writefile{toc}{\contentsline {section}{\numberline {2}Mechanics of DNA Looping}{6}}
\citation{Dickerson1989,ElHassan1995}
\citation{Olson1998}
\newlabel{eq:harmonic-energy}{{1}{7}}
\citation{Horowitz1984,Heath1996}
\citation{Jacobson1950}
\citation{Shore1981,Kahn1992}
\citation{Mueller1996,Bintu2005,Bintu2005a,Saiz2005}
\citation{Finzi1995,Haeusler2012,Han2009,Johnson2012}
\citation{Czapla2006}
\citation{Swigon2006}
\citation{Clauvelin2012}
\citation{Lu2003,Lu2008}
\citation{DeLano2002}
\@writefile{toc}{\contentsline {section}{\numberline {3}Computational Modeling of Protein-DNA Interactions}{9}}
\citation{Czapla2013}
\citation{Czapla2013}
\citation{Lewis1996,Bell2000}
\citation{Morgan2005,Rutkauskas2009,Hirsh2011,Towles2009,Villa2005}
\citation{Villa2005}
\@writefile{toc}{\contentsline {section}{\numberline {4}Lac Repressor-mediated DNA Looping}{10}}
\@writefile{toc}{\contentsline {subsection}{\numberline {4.1}Introduction}{10}}
\@writefile{toc}{\contentsline {subsection}{\numberline {4.2}LacR-mediated looping generally easier than minicircle cyclization}{10}}
\@writefile{toc}{\contentsline {subsection}{\numberline {4.3}Effect from flexible LacR}{10}}
\citation{Becker2007,Becker2005,Bond2010}
\citation{Berger2009,Becker2007,Rouviere-Yaniv1979}
\citation{Nir2011}
\citation{AliAzam1999,Blattner1997}
\@writefile{toc}{\contentsline {subsection}{\numberline {4.4}Effect from loop length}{11}}
\citation{Czapla2013}
\@writefile{toc}{\contentsline {subsection}{\numberline {4.5}Effect from the HU protein}{12}}
\citation{Romanuka2009}
\citation{Sadler1983}
\@writefile{toc}{\contentsline {subsection}{\numberline {4.6}Effect from operator sequences}{13}}
\citation{Spronk1999,Romanuka2009}
\citation{Mueller1996}
\citation{Swigon2006}
\citation{Lu2003,Lu2008}
\citation{LaPenna2010}
\citation{Wong2008,Tsodikov1999}
\citation{Zheng2009}
\citation{Britton2009}
\citation{AliAzam1999,Oberto2001}
\citation{Skoko2006}
\citation{Stella2010}
\@writefile{toc}{\contentsline {section}{\numberline {5}Loop Database And Website}{15}}
\@writefile{toc}{\contentsline {section}{\numberline {6}Further Proposed Research}{15}}
\citation{Johnson2012}
\citation{Olson1998}
\citation{MacDonald2001}
\citation{Geggier2010,Morozov2008}
\citation{Wiggins2006}
\citation{Charlotte2008}
\citation{Czapla2013}
\citation{Czapla2013}
\citation{Czapla2013}
\citation{Swigon2006}
\citation{Becker2005}
\citation{Czapla2013,Han2009}
\citation{Olson2012}
\citation{Swigon2006}
\citation{Becker2005}
\citation{Czapla2013,Han2009}
\citation{Olson2012}
\@writefile{toc}{\contentsline {section}{\numberline {7}Conclusion}{17}}
\@writefile{lof}{\contentsline {figure}{\numberline {6}{\ignorespaces \relax \fontsize  {10}{12}\selectfont  \abovedisplayskip 10\p@ plus2\p@ minus5\p@ \abovedisplayshortskip \z@ plus3\p@ \belowdisplayshortskip 6\p@ plus3\p@ minus3\p@ \def \leftmargin \leftmargini \parsep 4.5\p@ plus2\p@ minus\p@ \topsep 9\p@ plus3\p@ minus5\p@ \itemsep 4.5\p@ plus2\p@ minus\p@ {\leftmargin \leftmargini \topsep 6\p@ plus2\p@ minus2\p@ \parsep 3\p@ plus2\p@ minus\p@ \itemsep \parsep }\belowdisplayskip \abovedisplayskip Schematic diagram of the six step parameters which fully describe the transformation of one base pair to the next. Image from \cite  {Olson1998}, derived from \cite  {Dickerson1989}.}}{18}}
\newlabel{fig:StepParams}{{6}{18}}
\@writefile{lof}{\contentsline {figure}{\numberline {7}{\ignorespaces \relax \fontsize  {10}{12}\selectfont  \abovedisplayskip 10\p@ plus2\p@ minus5\p@ \abovedisplayshortskip \z@ plus3\p@ \belowdisplayshortskip 6\p@ plus3\p@ minus3\p@ \def \leftmargin \leftmargini \parsep 4.5\p@ plus2\p@ minus\p@ \topsep 9\p@ plus3\p@ minus5\p@ \itemsep 4.5\p@ plus2\p@ minus\p@ {\leftmargin \leftmargini \topsep 6\p@ plus2\p@ minus2\p@ \parsep 3\p@ plus2\p@ minus\p@ \itemsep \parsep }\belowdisplayskip \abovedisplayskip Protein-free, covalently closed DNA minicircles are usually the least likely to form at all chain lengths. LacR-mediated, HU-free loops are more likely than minicircles because the intervening DNA does not need to be as bent. LacR-mediated loops in the presence of HU have nearly constant levels of $J(N)$. All three categories of looped structures form with different likelihoods and oscillate $J(N)$ out of phase. Figure taken from \cite  {Czapla2013}}}{19}}
\newlabel{fig:j_from_hu}{{7}{19}}
\@writefile{lof}{\contentsline {figure}{\numberline {8}{\ignorespaces \relax \fontsize  {10}{12}\selectfont  \abovedisplayskip 10\p@ plus2\p@ minus5\p@ \abovedisplayshortskip \z@ plus3\p@ \belowdisplayshortskip 6\p@ plus3\p@ minus3\p@ \def \leftmargin \leftmargini \parsep 4.5\p@ plus2\p@ minus\p@ \topsep 9\p@ plus3\p@ minus5\p@ \itemsep 4.5\p@ plus2\p@ minus\p@ {\leftmargin \leftmargini \topsep 6\p@ plus2\p@ minus2\p@ \parsep 3\p@ plus2\p@ minus\p@ \itemsep \parsep }\belowdisplayskip \abovedisplayskip DNA bound to the two LacR operators has four possible orientations governed by the $5' \rightarrow 3'$ directionality of the bound DNA. The DNA can be either parallel (P) or anti-parallel (A), and the first operator (closest to the $5'$ end, or $O_3$ for $O_3 \ldots  O_1$ loops) points the DNA inside (1) or outside (2). Image taken from \cite  {Czapla2013}. }}{20}}
\newlabel{fig:Orientations}{{8}{20}}
\@writefile{lof}{\contentsline {figure}{\numberline {9}{\ignorespaces \relax \fontsize  {10}{12}\selectfont  \abovedisplayskip 10\p@ plus2\p@ minus5\p@ \abovedisplayshortskip \z@ plus3\p@ \belowdisplayshortskip 6\p@ plus3\p@ minus3\p@ \def \leftmargin \leftmargini \parsep 4.5\p@ plus2\p@ minus\p@ \topsep 9\p@ plus3\p@ minus5\p@ \itemsep 4.5\p@ plus2\p@ minus\p@ {\leftmargin \leftmargini \topsep 6\p@ plus2\p@ minus2\p@ \parsep 3\p@ plus2\p@ minus\p@ \itemsep \parsep }\belowdisplayskip \abovedisplayskip $J(N)$ of loops bound by flexible and fixed LacR can be combined by penalizing flexible LacR opening by $1.8 kT$, a conservative estimate of the free energy cost deduced from the surface area of the contact interface \cite  {Swigon2006}. At a level of 1 HU protein every 500 base pairs, the weighted $J$ closely mirrors results from gene-expression studies with HU (WT) \cite  {Becker2005}. In the absence of HU, the computed $J$ is several orders of magnitude less and out of phase with the gene-repression data. $J(N)$ measured in HU depleted cells ($\Delta \mathrm  {HU}$) is consistent with data obtained in HU-depleted, tethered particle motion experiments \cite  {Czapla2013, Han2009}. Image taken from \cite  {Olson2012}. }}{20}}
\newlabel{fig:HUat500}{{9}{20}}
\@writefile{lof}{\contentsline {figure}{\numberline {10}{\ignorespaces \relax \fontsize  {10}{12}\selectfont  \abovedisplayskip 10\p@ plus2\p@ minus5\p@ \abovedisplayshortskip \z@ plus3\p@ \belowdisplayshortskip 6\p@ plus3\p@ minus3\p@ \def \leftmargin \leftmargini \parsep 4.5\p@ plus2\p@ minus\p@ \topsep 9\p@ plus3\p@ minus5\p@ \itemsep 4.5\p@ plus2\p@ minus\p@ {\leftmargin \leftmargini \topsep 6\p@ plus2\p@ minus2\p@ \parsep 3\p@ plus2\p@ minus\p@ \itemsep \parsep }\belowdisplayskip \abovedisplayskip Images of the 10 $O_3$, 20 $O_1$, 11 $O_{sym}$, and 20 $O_2$ operators superimposed on their central base pair taken from [Biopolymers REF]. The $O_3$ operator shows the widest variation in structure.}}{21}}
\newlabel{fig:OperatorsSuperimposed}{{10}{21}}
\bibstyle{abbrv}
\bibdata{/Users/grosner/Dropbox/bibdb}
\bibcite{AliAzam1999}{1}
\bibcite{Becker2005}{2}
\bibcite{Becker2007}{3}
\bibcite{Bell2000}{4}
\bibcite{Berger2009}{5}
\bibcite{Bintu2005a}{6}
\bibcite{Bintu2005}{7}
\bibcite{Blattner1997}{8}
\bibcite{Bond2010}{9}
\bibcite{Britton2009}{10}
\bibcite{Charlotte2008}{11}
\bibcite{Clauvelin2012}{12}
\bibcite{Czapla2013}{13}
\bibcite{Czapla2006}{14}
\bibcite{DeLano2002}{15}
\bibcite{Dickerson1989}{16}
\bibcite{Ditto1994}{17}
\bibcite{ElHassan1995}{18}
\bibcite{Finzi1995}{19}
\bibcite{Garcia2007}{20}
\bibcite{Geggier2010}{21}
\bibcite{Haeusler2012}{22}
\bibcite{Han2009}{23}
\bibcite{Heath1996}{24}
\bibcite{Hirsh2011}{25}
\bibcite{Hodges-Garcia1989}{26}
\bibcite{Horowitz1984}{27}
\bibcite{Jacobson1950}{28}
\bibcite{Johnson2012}{29}
\bibcite{Kahn1992}{30}
\bibcite{Kraemer1987}{31}
\bibcite{LaPenna2010}{32}
\bibcite{Lewis1996}{33}
\bibcite{Lu2003}{34}
\bibcite{Lu2008}{35}
\bibcite{MacDonald2001}{36}
\bibcite{Morgan2005}{37}
\bibcite{Morozov2008}{38}
\bibcite{Muller-Hill1996}{39}
\bibcite{Mueller1996}{40}
\bibcite{Nir2011}{41}
\bibcite{Oberto2001}{42}
\bibcite{Olson1998}{43}
\bibcite{Olson2012}{44}
\bibcite{Romanuka2009}{45}
\bibcite{Rouviere-Yaniv1979}{46}
\bibcite{Rutkauskas2009}{47}
\bibcite{Sadler1983}{48}
\bibcite{Sagi2004}{49}
\bibcite{Saiz2005}{50}
\bibcite{Shore1981}{51}
\bibcite{Skoko2006}{52}
\bibcite{Spronk1999}{53}
\bibcite{Stella2010}{54}
\bibcite{Swigon2006}{55}
\bibcite{Swinger2003}{56}
\bibcite{Swinger2007}{57}
\bibcite{Towles2009}{58}
\bibcite{Tsodikov1999}{59}
\bibcite{Villa2005}{60}
\bibcite{Virstedt2004}{61}
\bibcite{Wiggins2006}{62}
\bibcite{Wong2008}{63}
\bibcite{Zheng2009}{64}
\@writefile{lof}{\contentsline {figure}{\numberline {11}{\ignorespaces \relax \fontsize  {10}{12}\selectfont  \abovedisplayskip 10\p@ plus2\p@ minus5\p@ \abovedisplayshortskip \z@ plus3\p@ \belowdisplayshortskip 6\p@ plus3\p@ minus3\p@ \def \leftmargin \leftmargini \parsep 4.5\p@ plus2\p@ minus\p@ \topsep 9\p@ plus3\p@ minus5\p@ \itemsep 4.5\p@ plus2\p@ minus\p@ {\leftmargin \leftmargini \topsep 6\p@ plus2\p@ minus2\p@ \parsep 3\p@ plus2\p@ minus\p@ \itemsep \parsep }\belowdisplayskip \abovedisplayskip Mosaics of $\qopname  \relax o{log}J$ values of $O_{sym} \ldots  O_{sym}$ and $O_3 \ldots  O_1$ loops taken from [Biopolymers REF]. $10^{15}$ configurations for every of the 121 combinations of $O_{sym} \ldots  O_{sym}$ and 200 $O_3 \ldots  O_1$ boundaries are generated using the Gaussian sampling method outlined previously, and separated by orientation (not enough P2 loops are generated to be significant). Notice that fluctuations in the end conditions $O_3 \ldots  O_1$ can vary $J$ by a factor of $\pm 2$ orders of magnitude, while the fluctuations in $O_{sym} \ldots  O_{sym}$ end conditions vary $J$ over a single order of magnitude. Image taken from [Biopolymers REF]}}{28}}
\newlabel{fig:J_mosaics}{{11}{28}}
\@writefile{lof}{\contentsline {figure}{\numberline {12}{\ignorespaces \relax \fontsize  {10}{12}\selectfont  \abovedisplayskip 10\p@ plus2\p@ minus5\p@ \abovedisplayshortskip \z@ plus3\p@ \belowdisplayshortskip 6\p@ plus3\p@ minus3\p@ \def \leftmargin \leftmargini \parsep 4.5\p@ plus2\p@ minus\p@ \topsep 9\p@ plus3\p@ minus5\p@ \itemsep 4.5\p@ plus2\p@ minus\p@ {\leftmargin \leftmargini \topsep 6\p@ plus2\p@ minus2\p@ \parsep 3\p@ plus2\p@ minus\p@ \itemsep \parsep }\belowdisplayskip \abovedisplayskip HU tends to bind in distinctive locations on Lac loops depending on loop length, LacR geometry, and DNA orientation (A1, A2, P1, P2). P1 and P2 show the most striking patterns of HU placement. The parallel loops show less disruption in HU patterning due to lower average opening angle $ \Delta \alpha \approx 16$ compared to anti-parallel loops $\Delta \alpha \approx 30$. The shaded background areas correspond to the CAP (red, see figure 2\hbox {}), -35 (green) and -10 (blue) sites.}}{29}}
\newlabel{fig:HU_locations}{{12}{29}}
\@writefile{lof}{\contentsline {figure}{\numberline {13}{\ignorespaces \relax \fontsize  {10}{12}\selectfont  \abovedisplayskip 10\p@ plus2\p@ minus5\p@ \abovedisplayshortskip \z@ plus3\p@ \belowdisplayshortskip 6\p@ plus3\p@ minus3\p@ \def \leftmargin \leftmargini \parsep 4.5\p@ plus2\p@ minus\p@ \topsep 9\p@ plus3\p@ minus5\p@ \itemsep 4.5\p@ plus2\p@ minus\p@ {\leftmargin \leftmargini \topsep 6\p@ plus2\p@ minus2\p@ \parsep 3\p@ plus2\p@ minus\p@ \itemsep \parsep }\belowdisplayskip \abovedisplayskip $J$ as a function of looped DNA length in base pairs ($J(N)$) is plotted in the top row and the proportion of loops at length $N$ with one (green), two (red), or three (blue) HU is plotted in the bottom row. Flexible, deformable LacR is on the left column and fixed LacR is on the right. Flexible LacR tends to smooth out the peaks and valleys in $J(N)$ and increases $J(N)$ on average. Fixed loops tend to be dominated by two HU when $J(N)$ is increasing, while flexible loops tend to be dominated by two HU near local minimums in $J(N)$. Taken together, these plots show how the complex interactions of the Lac operon interact together in a non-additive fashion.}}{30}}
\newlabel{fig:combo_fig}{{13}{30}}
